<svg width="110" height="110" viewBox="0 0 110 110" fill="none" xmlns="http://www.w3.org/2000/svg">
<path d="M36.7601 100V82.1301L7.89014 34.3401L8.77014 51.2501L36.7601 100Z" fill="#D9C8B5"/>
<path d="M103.55 50.8L36.2102 83.31L6.4502 34.09L68.3002 10L103.55 50.8Z" fill="#157A7A"/>
<path d="M36.7598 100V82.1301L102.11 50.5801L100.45 64.8601L36.7598 100Z" fill="#F5EFDF"/>
<path d="M67.04 83.19V73.69L72.35 70.98L72.31 80.34L67.04 83.19Z" fill="#D9C8B5"/>
<path d="M71.5701 25.09L35.9701 39.73L7.89014 34.34L67.9001 10.96L71.5701 25.09Z" fill="#069999"/>
<path d="M35.3901 39.6501L36.2101 83.3101L103.55 50.8001L72.0701 24.5601" fill="#069999"/>
<path d="M31.7 42.6499L30.75 40.7799L73.51 23.6299L74.46 25.4899" fill="#157A7A"/>
</svg>
