<?xml version="1.0" standalone="no"?>
<!DOCTYPE svg PUBLIC "-//W3C//DTD SVG 1.1//EN" "http://www.w3.org/Graphics/SVG/1.1/DTD/svg11.dtd" >
<svg xmlns="http://www.w3.org/2000/svg">
<metadata>Generated by IcoMoon</metadata>
<defs>
<font id="icomoon" horiz-adv-x="1024">
<font-face units-per-em="1024" ascent="960" descent="-64" />
<missing-glyph horiz-adv-x="1024" />
<glyph unicode="&#x20;" horiz-adv-x="512" d="" />
<glyph unicode="&#xe900;" glyph-name="prev-white" horiz-adv-x="1728" d="M56.911 521.846c305.154 227.692 610.309 363.076 909.233 406.154 24.909 0 43.597-12.308 49.824-36.923s-12.454-43.077-37.37-49.231c-261.562-36.924-529.347-153.846-803.363-338.462 31.138-12.307 62.276-24.615 93.414-36.923-6.228 6.154-6.228 12.308-6.228 24.616 0 24.615 18.683 43.076 37.366 49.231 616.538 55.384 1102.292 55.384 1363.853 0 18.682-12.308 37.363-36.924 31.136-61.539-6.227-18.461-24.909-36.923-43.59-36.923 0 0-6.227 0-12.454 0-249.107 55.384-741.094 55.384-1332.717 0 280.244-116.924 510.669-252.31 691.27-393.846 18.682-12.307 24.909-43.078 6.227-61.536-6.227-12.307-18.688-18.464-37.37-18.464-12.454 0-18.682 6.157-24.909 12.307-217.965 172.307-510.667 332.307-878.097 467.693-12.455 6.154-24.911 18.461-31.138 36.923 0 12.308 12.455 30.769 24.911 36.924z" />
<glyph unicode="&#xe901;" glyph-name="next-white" horiz-adv-x="1566" d="M1542.674 518.336c-287.208 216.868-574.41 345.817-855.751 386.846-23.444 0-41.032-11.722-46.893-35.168s11.722-41.029 35.171-46.891c246.176-35.168 498.206-146.533 756.104-322.371-29.304-11.722-58.609-23.445-87.919-35.168 5.861 5.861 5.861 11.722 5.861 23.445 0 23.445-17.583 41.029-35.165 46.89-580.271 52.752-1037.45 52.752-1283.625 0-17.584-11.722-35.168-35.168-29.307-58.613 5.861-17.584 23.445-35.168 41.029-35.168 0 0 5.861 0 11.723 0 234.452 52.752 697.498 52.752 1254.319 0-263.758-111.362-480.629-240.314-650.607-375.121-17.583-11.728-23.444-41.032-5.861-58.615 5.861-11.722 17.589-17.583 35.171-17.583 11.722 0 17.583 5.861 23.444 11.722 205.143 164.117 480.629 316.512 826.446 445.458 11.722 5.861 23.444 17.584 29.304 35.168 0 11.722-11.722 29.306-23.444 35.168z" />
</font></defs></svg>