<svg width="70" height="70" viewBox="0 0 70 70" fill="none" xmlns="http://www.w3.org/2000/svg">
<path d="M66.1818 33.7273C66.1818 51.2782 53.2381 65.5455 35.6363 65.5455C27.1976 65.5455 19.1045 62.1932 13.1374 56.2261C7.17038 50.2591 3.81812 42.166 3.81812 33.7273C3.81812 16.1764 18.0345 4.45454 35.6363 4.45454C53.2381 4.45454 66.1818 16.1764 66.1818 33.7273Z" fill="#BFAB93"/>
<path d="M21.9928 65.0364C22.9598 64.205 23.9848 63.4437 25.0601 62.7582C29.451 60.0218 31.551 58.6091 33.091 57.5655C34.3637 56.7509 35.1146 56.2036 36.3873 55.4655L37.2655 54.9436C38.9328 53.9891 41.7328 52.3982 43.7182 50.9473C45.3115 49.6409 46.7658 48.1737 48.0582 46.5691L48.7837 45.7418C49.8672 44.5299 50.5243 42.9967 50.6546 41.3764C50.8486 40.5706 51.1527 39.7955 51.5582 39.0727C52.0419 38.08 52.4746 37.2273 52.1691 36.5273C52.0774 36.3616 51.9497 36.2185 51.7956 36.1084C51.6415 35.9983 51.4647 35.924 51.2782 35.8909C51.3516 35.7979 51.4115 35.6951 51.4564 35.5855C52.2964 33.3709 49.7637 29.6418 48.7582 28.5345C47.1546 26.7909 45.4491 25.1236 43.8328 24.7164C42.1634 24.5462 40.4768 24.7062 38.8691 25.1873C37.8255 25.4036 36.6928 25.6455 35.4455 25.8364C35.9291 25.4545 36.3491 25.0855 36.7182 24.7291C37.2654 24.1582 37.9124 23.6924 38.6273 23.3545C40.5187 22.9524 42.4662 22.8878 44.3801 23.1636H44.5455C45.3534 23.2278 46.1516 23.3815 46.9255 23.6218C47.7173 23.8986 48.5601 23.9985 49.3946 23.9145C50.3148 23.8327 51.1697 23.4052 51.7873 22.7182C51.9208 22.5756 52.0236 22.4072 52.0893 22.2233C52.1549 22.0394 52.1821 21.8439 52.1691 21.6491C52.0801 20.8218 51.4182 20.4527 49.2037 19.5873C46.9218 18.7045 44.5182 18.1766 42.0764 18.0218H41.6182C40.1287 17.7783 38.6128 17.7398 37.1128 17.9073C37.8637 17.2836 38.831 16.5327 39.7346 15.8327C40.6822 15.1501 41.5875 14.4106 42.4455 13.6182C42.8416 13.2358 43.0953 12.7297 43.1647 12.1835C43.2341 11.6374 43.1151 11.0839 42.8273 10.6145C42.7039 10.4739 42.5509 10.3621 42.3793 10.2873C42.2077 10.2125 42.0217 10.1765 41.8346 10.1818C38.7928 9.90182 30.2401 16.6218 29.5401 17.2582C28.2673 18.4164 26.6001 21.4964 25.4037 23.7491L24.8819 24.7164C24.8126 23.5948 25.1823 22.4902 25.9128 21.6364C27.7964 18.9509 28.4582 17.3091 28.2164 16.3164C28.1615 16.1255 28.0627 15.9501 27.9279 15.8042C27.7931 15.6584 27.626 15.5461 27.4401 15.4764C25.9891 14.8782 24.7546 16.5327 23.6219 18.1364L23.3673 18.4673C21.99 20.2697 20.8916 22.269 20.1091 24.3982C19.9687 25.9435 19.9687 27.4983 20.1091 29.0436C20.2968 30.739 20.2497 32.4521 19.9691 34.1345C18.2001 42.0764 15.9982 49.8909 11.5564 53.3273L9.99097 54.6L21.9928 65.0364ZM51.1128 22.26L47.1801 36.5782C46.4562 37.1844 45.8332 37.9018 45.3346 38.7036C44.7483 39.6173 44.0176 40.4297 43.171 41.1091C41.3001 42.3818 39.4546 42.5218 37.991 41.4018C36.9473 40.6 35.0382 38.4873 35.0382 37.4055C34.9856 36.7653 35.1387 36.125 35.4752 35.5779C35.8117 35.0308 36.3141 34.6054 36.9091 34.3636L37.3037 34.1345L37.4564 34.02C39.0325 32.8757 40.8704 32.1449 42.8019 31.8945H42.9037C44.2655 31.8945 45.271 33.1673 46.531 35.3691C46.7979 35.8042 47.2003 36.1396 47.6764 36.3236C47.5017 36.3891 47.3351 36.4745 47.1801 36.5782L51.1128 22.26Z" fill="white"/>
<path d="M52.1819 36.5782C52.0901 36.4125 51.9625 36.2694 51.8083 36.1593C51.6542 36.0492 51.4775 35.9749 51.291 35.9418C51.3643 35.8488 51.4243 35.746 51.4691 35.6364C52.3091 33.4218 49.7764 29.6927 48.771 28.5855C47.1673 26.8418 45.4619 25.1745 43.8455 24.7673C42.1761 24.5971 40.4895 24.7571 38.8819 25.2382C37.8382 25.4545 36.7055 25.6964 35.4582 25.8873C35.9419 25.5055 36.3619 25.1364 36.731 24.78C37.2781 24.2091 37.9251 23.7433 38.6401 23.4055C40.5314 23.0033 42.4789 22.9387 44.3928 23.2145H44.5455C45.3534 23.2787 46.1516 23.4324 46.9255 23.6727C47.7173 23.9495 48.5601 24.0494 49.3946 23.9655C50.3148 23.8836 51.1697 23.4561 51.7873 22.7691C51.9208 22.6265 52.0236 22.4581 52.0893 22.2742C52.1549 22.0903 52.1821 21.8948 52.1691 21.7C52.0801 20.8727 51.4182 20.5036 49.2037 19.6382C46.9218 18.7554 44.5182 18.2275 42.0764 18.0727H41.6182C40.1287 17.8292 38.6128 17.7907 37.1128 17.9582C37.8637 17.3345 38.831 16.5836 39.7346 15.8836C40.6822 15.201 41.5875 14.4615 42.4455 13.6691C42.8416 13.2867 43.0953 12.7806 43.1647 12.2344C43.2341 11.6883 43.1151 11.1348 42.8273 10.6655C42.7088 10.5155 42.558 10.3941 42.3861 10.3104C42.2143 10.2266 42.0258 10.1827 41.8346 10.1818C38.7928 9.90182 30.2401 16.6218 29.5401 17.2582C28.2673 18.4164 26.6001 21.4964 25.4037 23.7491L24.8819 24.7164C24.8126 23.5948 25.1823 22.4902 25.9128 21.6364C27.7964 18.9509 28.4582 17.3091 28.2164 16.3164C28.1615 16.1255 28.0627 15.9501 27.9279 15.8042C27.7931 15.6584 27.626 15.5461 27.4401 15.4764C25.9891 14.8782 24.7546 16.5327 23.6219 18.1364L23.3673 18.4673C21.99 20.2697 20.8916 22.269 20.1091 24.3982C19.9687 25.9435 19.9687 27.4983 20.1091 29.0436C20.2968 30.739 20.2497 32.4521 19.9691 34.1345C18.2001 42.0764 15.9982 49.8909 11.5564 53.3273L9.99097 54.6C10.1871 54.8133 10.3699 55.0386 10.5382 55.2745L12.0782 54.0018C16.7491 50.4 19.0146 42.4073 20.771 34.3C21.0806 32.5352 21.1363 30.7351 20.9364 28.9545C20.7961 27.4603 20.7961 25.9561 20.9364 24.4618C21.7181 22.4957 22.7581 20.6424 24.0291 18.9509L24.271 18.62C25.2255 17.3473 26.3073 15.8964 27.1473 16.24C27.2111 16.2618 27.2686 16.2986 27.3151 16.3474C27.3617 16.3961 27.3958 16.4553 27.4146 16.52C27.5291 16.9018 27.4146 18.0218 25.2255 21.1018C24.6873 21.7817 24.3093 22.5742 24.1198 23.4204C23.9303 24.2666 23.9341 25.1446 24.131 25.9891C23.991 26.2564 23.6091 26.9691 23.291 27.4909C23.2607 27.5393 23.2402 27.5932 23.2309 27.6496C23.2215 27.7059 23.2234 27.7635 23.2364 27.8192C23.2494 27.8748 23.2733 27.9272 23.3067 27.9736C23.3401 28.0199 23.3823 28.0592 23.431 28.0891C23.5006 28.1295 23.5795 28.1515 23.6601 28.1527C23.7334 28.1508 23.8052 28.1313 23.8694 28.0959C23.9336 28.0604 23.9884 28.0101 24.0291 27.9491C24.4237 27.3 24.8946 26.3964 24.9455 26.2945C25.4215 25.6051 25.8469 24.882 26.2182 24.1309C27.2747 21.8914 28.5996 19.7887 30.1637 17.8691C31.5255 16.5964 39.391 10.7927 41.8091 11.0091C42.0891 11.0091 42.1655 11.1364 42.191 11.1745C42.6491 11.76 42.191 12.6255 41.8473 13.0709C41.0341 13.8126 40.1845 14.5134 39.3019 15.1709C38.0124 16.1051 36.7878 17.1256 35.6364 18.2255C32.9176 19.2056 30.4491 20.7746 28.4073 22.82C26.6049 25.0571 24.9996 27.446 23.6091 29.96C23.5794 30.0092 23.5597 30.0638 23.5513 30.1206C23.5429 30.1775 23.5458 30.2354 23.5601 30.2911C23.5743 30.3468 23.5995 30.3991 23.6341 30.445C23.6687 30.4908 23.7122 30.5293 23.7619 30.5582C23.8642 30.6107 23.9824 30.6228 24.0932 30.5922C24.2041 30.5615 24.2993 30.4903 24.3601 30.3927C25.7143 27.9563 27.2681 25.6362 29.0055 23.4564C30.9503 21.5108 33.3017 20.0199 35.891 19.0909C37.7462 18.6938 39.6608 18.6592 41.5291 18.9891H41.9746C44.3428 19.133 46.6742 19.644 48.8855 20.5036C50.9091 21.28 51.2782 21.56 51.3037 21.8527C51.2961 22.012 51.2278 22.1623 51.1128 22.2727C50.6476 22.7753 50.0129 23.0881 49.331 23.1509C48.604 23.2263 47.8694 23.1393 47.1801 22.8964C46.3525 22.6375 45.4988 22.471 44.6346 22.4H44.5455C42.5031 22.104 40.4237 22.186 38.411 22.6418C37.5655 23.0009 36.7998 23.5244 36.1582 24.1818C35.3367 24.971 34.417 25.6511 33.4219 26.2055H33.0019C31.6218 26.2284 30.2729 26.6194 29.0946 27.3382C27.8219 28.2036 25.8237 31.6527 25.6073 32.0473C25.5779 32.0955 25.5584 32.1491 25.5501 32.205C25.5419 32.2608 25.5449 32.3178 25.5592 32.3725C25.5735 32.4271 25.5986 32.4784 25.6331 32.5231C25.6676 32.5678 25.7108 32.6051 25.7601 32.6327C25.8267 32.6695 25.9005 32.6912 25.9764 32.6964C26.0536 32.6976 26.1297 32.6782 26.1968 32.6402C26.2639 32.6021 26.3197 32.5468 26.3582 32.48C27.2202 30.8648 28.304 29.3783 29.5782 28.0636C30.6425 27.4351 31.8549 27.1012 33.091 27.0964L33.5873 27.02C35.4088 26.8113 37.2184 26.5097 39.0091 26.1164C40.4943 25.6778 42.047 25.5139 43.591 25.6327C45.1819 26.0145 47.1291 28.1782 48.071 29.1709C49.3437 30.4436 51.2019 33.7527 50.6164 35.3309C50.6164 35.4327 50.1837 35.6873 49.4582 35.7382C49.0512 35.8094 48.6327 35.7729 48.2442 35.6322C47.8557 35.4916 47.5107 35.2517 47.2437 34.9364C45.971 32.8364 44.6982 30.9527 42.7128 31.0418C40.6331 31.3011 38.6534 32.0851 36.9601 33.32L36.7946 33.4218L36.4255 33.6382C35.6946 33.957 35.0819 34.4967 34.6733 35.1815C34.2647 35.8662 34.0808 36.6617 34.1473 37.4564C34.1473 39.0855 36.591 41.4909 37.4437 42.14C39.2128 43.5018 41.4655 43.4127 43.6419 41.86C44.5766 41.1345 45.3777 40.2516 46.0091 39.2509C46.4644 38.5296 47.0266 37.8816 47.6764 37.3291C48.7387 36.8742 49.9009 36.7032 51.0491 36.8327C51.2401 36.8327 51.3291 36.9473 51.3546 36.9982C51.4819 37.2655 51.0746 38.08 50.7564 38.7291C50.307 39.5251 49.9768 40.3827 49.7764 41.2745C49.6828 42.7342 49.0999 44.1197 48.1219 45.2073C47.931 45.4109 47.6764 45.7036 47.3837 46.0473C46.1571 47.5772 44.7799 48.98 43.2728 50.2346C41.3255 51.6473 38.551 53.2382 36.9091 54.1927L36.0182 54.7146C34.7455 55.4782 33.8673 55.9873 32.6837 56.8527C31.1564 57.8836 29.0564 59.2964 24.6782 62.02C23.4256 62.8247 22.2383 63.7269 21.1273 64.7182C21.4509 64.7933 21.7663 64.8998 22.0691 65.0364C23.0361 64.205 24.0612 63.4437 25.1364 62.7582C29.5273 60.0218 31.6273 58.6091 33.1673 57.5655C34.4401 56.7509 35.191 56.2036 36.4637 55.4655L37.3419 54.9436C39.0091 53.9891 41.8091 52.3982 43.7946 50.9473C45.3878 49.6409 46.8422 48.1737 48.1346 46.5691L48.8601 45.7418C49.9435 44.5299 50.6006 42.9967 50.731 41.3764C50.925 40.5706 51.229 39.7955 51.6346 39.0727C52.0419 38.08 52.4746 37.2273 52.1819 36.5782ZM47.1928 36.5782C46.4689 37.1844 45.846 37.9018 45.3473 38.7036C44.7611 39.6173 44.0303 40.4297 43.1837 41.1091C41.3128 42.3818 39.4673 42.5218 38.0037 41.4018C36.9601 40.6 35.051 38.4873 35.051 37.4055C34.9974 36.7668 35.1486 36.1276 35.4827 35.5807C35.8168 35.0338 36.3164 34.6075 36.9091 34.3636L37.3037 34.1345L37.4564 34.02C39.0325 32.8757 40.8704 32.1449 42.8019 31.8945H42.9037C44.2655 31.8945 45.271 33.1673 46.531 35.3691C46.7979 35.8042 47.2003 36.1396 47.6764 36.3236C47.5017 36.3891 47.3351 36.4745 47.1801 36.5782H47.1928Z" fill="#003333" stroke="#003333" stroke-width="0.4" stroke-miterlimit="10"/>
</svg>
